module adamszkolny/handbook

go 1.19

require (
	github.com/charmbracelet/bubbles v0.14.0
	github.com/charmbracelet/bubbletea v0.21.0
	github.com/charmbracelet/lipgloss v0.6.0
)

require (
	github.com/alecthomas/chroma v0.10.0 // indirect
	github.com/atotto/clipboard v0.1.4 // indirect
	github.com/aymanbagabas/go-osc52 v1.0.3 // indirect
	github.com/aymerick/douceur v0.2.0 // indirect
	github.com/charmbracelet/glamour v0.6.0 // indirect
	github.com/containerd/console v1.0.3 // indirect
	github.com/dlclark/regexp2 v1.4.0 // indirect
	github.com/gorilla/css v1.0.0 // indirect
	github.com/lucasb-eyer/go-colorful v1.2.0 // indirect
	github.com/mattn/go-isatty v0.0.16 // indirect
	github.com/mattn/go-runewidth v0.0.14 // indirect
	github.com/microcosm-cc/bluemonday v1.0.21 // indirect
	github.com/muesli/ansi v0.0.0-20211018074035-2e021307bc4b // indirect
	github.com/muesli/cancelreader v0.2.0 // indirect
	github.com/muesli/reflow v0.3.0 // indirect
	github.com/muesli/termenv v0.13.0 // indirect
	github.com/olekukonko/tablewriter v0.0.5 // indirect
	github.com/rivo/uniseg v0.2.0 // indirect
	github.com/sahilm/fuzzy v0.1.0 // indirect
	github.com/yuin/goldmark v1.5.2 // indirect
	github.com/yuin/goldmark-emoji v1.0.1 // indirect
	golang.org/x/net v0.0.0-20221002022538-bcab6841153b // indirect
	golang.org/x/sys v0.0.0-20220811171246-fbc7d0a398ab // indirect
	golang.org/x/term v0.0.0-20210927222741-03fcf44c2211 // indirect
)
